{
  "id": "diorites_-998,84,263",
  "name": "diorites",
  "icon": "waypoint-normal.png",
  "x": -998,
  "y": 84,
  "z": 263,
  "r": 56,
  "g": 50,
  "b": 188,
  "enable": false,
  "type": "Normal",
  "origin": "JourneyMap",
  "dimensions": [
    0
  ]
}