{
  "id": "diorites_438,52,303",
  "name": "diorites",
  "icon": "waypoint-normal.png",
  "x": 438,
  "y": 52,
  "z": 303,
  "r": 139,
  "g": 74,
  "b": 222,
  "enable": false,
  "type": "Normal",
  "origin": "JourneyMap",
  "dimensions": [
    0
  ]
}