{
  "id": "pyrite_-790,110,313",
  "name": "pyrite",
  "icon": "waypoint-normal.png",
  "x": -790,
  "y": 110,
  "z": 313,
  "r": 64,
  "g": 236,
  "b": 229,
  "enable": false,
  "type": "Normal",
  "origin": "JourneyMap",
  "dimensions": [
    0
  ]
}