{
  "id": "Pyrite_-1179,66,264",
  "name": "Pyrite",
  "icon": "waypoint-normal.png",
  "x": -1179,
  "y": 66,
  "z": 264,
  "r": 159,
  "g": 250,
  "b": 158,
  "enable": false,
  "type": "Normal",
  "origin": "JourneyMap",
  "dimensions": [
    0
  ]
}