{
  "id": "reactormethals_-1257,68,282",
  "name": "reactormethals",
  "icon": "waypoint-normal.png",
  "x": -1257,
  "y": 68,
  "z": 282,
  "r": 71,
  "g": 213,
  "b": 157,
  "enable": false,
  "type": "Normal",
  "origin": "JourneyMap",
  "dimensions": [
    0
  ]
}